HW4 - Analysis
…
George Dewey

3/16/2020

Analysis

We will run two types of models for this analysis - a linear regression (potentially with optimization) and a neural network-based regression - and compare their performance.

Load Data

ts = readRDS("ts_cohort_analysis")

ts

## # A tibble: 1,231 x 12
##    subject_id hadm_id icd9_code seq_num icu_los hospital_expire   age ed_time
##         <int>   <int> <chr>       <int>   <dbl>            <int> <dbl>   <dbl>
##  1         43  146828 E8210           3   4.63                 0  32.7  0.169 
##  2         45  157907 E8122           7   1.67                 0  42.3  0.0569
##  3         65  143430 E8147           4   3.33                 0  26.5  0.0986
##  4        147  103631 E8120           5   6.94                 0  24.6  0.0931
##  5        183  113341 E8120           3   1.13                 0  51.1  0.0993
##  6        200  186970 E8217           8   0.976                0  24.0  0.0292
##  7        221  189243 E8120           7  11.5                  0  33.0  0.0722
##  8        248  175353 E8150           8  12.8                  0  18.2  0.0903
##  9        371  113500 E8190           5   1.50                 0  33.1  0.0924
## 10        397  114149 E8150           3   3.82                 0  19.9  0.176 
## #  with 1,221 more rows, and 4 more variables: hosp_time <dbl>, gender <chr>,
## #   ethnic_group <chr>, ever_married <lgl>
…
