HW2 Solutions
…
names(admits) = col_names

I converted all column names to lowercase and renamed some for readability.

Parse out year/month/day from datetime columns

admits = admits %>% mutate(
  admit_year = year(admit_time),
  admit_month = month(admit_time, label = T),
  admit_day = day(admit_time)
)

select(admits, starts_with("admit"))

## # A tibble: 58,976 x 6
##    admit_time          admit_type admit_location admit_year admit_month
##    <dttm>              <chr>      <chr>               <dbl> <ord>      
##  1 2196-04-09 12:26:00 EMERGENCY  EMERGENCY ROO       2196 Apr        
##  2 2153-09-03 07:15:00 ELECTIVE   PHYS REFERRAL       2153 Sep        
##  3 2157-10-18 19:34:00 EMERGENCY  TRANSFER FROM       2157 Oct        
##  4 2139-06-06 16:14:00 EMERGENCY  TRANSFER FROM       2139 Jun        
##  5 2160-11-02 02:06:00 EMERGENCY  EMERGENCY ROO       2160 Nov        
##  6 2126-05-06 15:16:00 EMERGENCY  TRANSFER FROM       2126 May        
##  7 2191-11-30 22:16:00 NEWBORN    PHYS REFERRAL       2191 Nov        
##  8 2177-09-01 07:15:00 ELECTIVE   PHYS REFERRAL       2177 Sep        
##  9 2172-10-14 14:17:00 URGENT     TRANSFER FROM       2172 Oct        
## 10 2108-08-22 23:27:00 EMERGENCY  TRANSFER FROM       2108 Aug        
## #  with 58,966 more rows, and 1 more variable: admit_day <int>
…
