Biostat 203B Homework 3 - Mapping
…
We import the most recent data as follows:

(confirmed_raw = read_csv("https://raw.githubusercontent.com/CSSEGISandData/COVID-19/master/csse_covid_19_data/csse_covid_19_time_series/time_series_19-covid-Confirmed.csv"))

## Parsed with column specification:
## cols(
##   .default = col_double(),
##   `Province/State` = col_character(),
##   `Country/Region` = col_character()
## )

## See spec(...) for full column specifications.

## # A tibble: 105 x 41
##    `Province/State` `Country/Region`   Lat  Long `1/22/20` `1/23/20` `1/24/20`
##    <chr>            <chr>            <dbl> <dbl>     <dbl>     <dbl>     <dbl>
##  1 Anhui            Mainland China    31.8  117.         1         9        15
##  2 Beijing          Mainland China    40.2  116.        14        22        36
##  3 Chongqing        Mainland China    30.1  108.         6         9        27
##  4 Fujian           Mainland China    26.1  118.         1         5        10
##  5 Gansu            Mainland China    36.1  104.         0         2         2
##  6 Guangdong        Mainland China    23.3  113.        26        32        53
##  7 Guangxi          Mainland China    23.8  109.         2         5        23
##  8 Guizhou          Mainland China    26.8  107.         1         3         3
##  9 Hainan           Mainland China    19.2  110.         4         5         8
## 10 Hebei            Mainland China    38.0  115.         1         1         2
## #  with 95 more rows, and 34 more variables: `1/25/20` <dbl>, `1/26/20` <dbl>,
## #   `1/27/20` <dbl>, `1/28/20` <dbl>, `1/29/20` <dbl>, `1/30/20` <dbl>,
## #   `1/31/20` <dbl>, `2/1/20` <dbl>, `2/2/20` <dbl>, `2/3/20` <dbl>,
## #   `2/4/20` <dbl>, `2/5/20` <dbl>, `2/6/20` <dbl>, `2/7/20` <dbl>,
## #   `2/8/20` <dbl>, `2/9/20` <dbl>, `2/10/20` <dbl>, `2/11/20` <dbl>,
## #   `2/12/20` <dbl>, `2/13/20` <dbl>, `2/14/20` <dbl>, `2/15/20` <dbl>,
## #   `2/16/20` <dbl>, `2/17/20` <dbl>, `2/18/20` <dbl>, `2/19/20` <dbl>,
## #   `2/20/20` <dbl>, `2/21/20` <dbl>, `2/22/20` <dbl>, `2/23/20` <dbl>,
## #   `2/24/20` <dbl>, `2/25/20` <dbl>, `2/26/20` <dbl>, `2/27/20` <dbl>

(recovered_raw = read_csv("https://raw.githubusercontent.com/CSSEGISandData/COVID-19/master/csse_covid_19_data/csse_covid_19_time_series/time_series_19-covid-Recovered.csv"))

## Parsed with column specification:
## cols(
##   .default = col_double(),
##   `Province/State` = col_character(),
##   `Country/Region` = col_character()
## )
## See spec(...) for full column specifications.

## # A tibble: 105 x 41
##    `Province/State` `Country/Region`   Lat  Long `1/22/20` `1/23/20` `1/24/20`
##    <chr>            <chr>            <dbl> <dbl>     <dbl>     <dbl>     <dbl>
##  1 Anhui            Mainland China    31.8  117.         0         0         0
##  2 Beijing          Mainland China    40.2  116.         0         0         1
##  3 Chongqing        Mainland China    30.1  108.         0         0         0
##  4 Fujian           Mainland China    26.1  118.         0         0         0
##  5 Gansu            Mainland China    36.1  104.         0         0         0
##  6 Guangdong        Mainland China    23.3  113.         0         2         2
##  7 Guangxi          Mainland China    23.8  109.         0         0         0
##  8 Guizhou          Mainland China    26.8  107.         0         0         0
##  9 Hainan           Mainland China    19.2  110.         0         0         0
## 10 Hebei            Mainland China    38.0  115.         0         0         0
## #  with 95 more rows, and 34 more variables: `1/25/20` <dbl>, `1/26/20` <dbl>,
## #   `1/27/20` <dbl>, `1/28/20` <dbl>, `1/29/20` <dbl>, `1/30/20` <dbl>,
## #   `1/31/20` <dbl>, `2/1/20` <dbl>, `2/2/20` <dbl>, `2/3/20` <dbl>,
## #   `2/4/20` <dbl>, `2/5/20` <dbl>, `2/6/20` <dbl>, `2/7/20` <dbl>,
## #   `2/8/20` <dbl>, `2/9/20` <dbl>, `2/10/20` <dbl>, `2/11/20` <dbl>,
## #   `2/12/20` <dbl>, `2/13/20` <dbl>, `2/14/20` <dbl>, `2/15/20` <dbl>,
## #   `2/16/20` <dbl>, `2/17/20` <dbl>, `2/18/20` <dbl>, `2/19/20` <dbl>,
## #   `2/20/20` <dbl>, `2/21/20` <dbl>, `2/22/20` <dbl>, `2/23/20` <dbl>,
## #   `2/24/20` <dbl>, `2/25/20` <dbl>, `2/26/20` <dbl>, `2/27/20` <dbl>

(death_raw = read_csv("https://raw.githubusercontent.com/CSSEGISandData/COVID-19/master/csse_covid_19_data/csse_covid_19_time_series/time_series_19-covid-Deaths.csv"))

## Parsed with column specification:
## cols(
##   .default = col_double(),
##   `Province/State` = col_character(),
##   `Country/Region` = col_character()
## )
## See spec(...) for full column specifications.

## # A tibble: 105 x 41
##    `Province/State` `Country/Region`   Lat  Long `1/22/20` `1/23/20` `1/24/20`
##    <chr>            <chr>            <dbl> <dbl>     <dbl>     <dbl>     <dbl>
##  1 Anhui            Mainland China    31.8  117.         0         0         0
##  2 Beijing          Mainland China    40.2  116.         0         0         0
##  3 Chongqing        Mainland China    30.1  108.         0         0         0
##  4 Fujian           Mainland China    26.1  118.         0         0         0
##  5 Gansu            Mainland China    36.1  104.         0         0         0
##  6 Guangdong        Mainland China    23.3  113.         0         0         0
##  7 Guangxi          Mainland China    23.8  109.         0         0         0
##  8 Guizhou          Mainland China    26.8  107.         0         0         0
##  9 Hainan           Mainland China    19.2  110.         0         0         0
## 10 Hebei            Mainland China    38.0  115.         0         1         1
## #  with 95 more rows, and 34 more variables: `1/25/20` <dbl>, `1/26/20` <dbl>,
## #   `1/27/20` <dbl>, `1/28/20` <dbl>, `1/29/20` <dbl>, `1/30/20` <dbl>,
## #   `1/31/20` <dbl>, `2/1/20` <dbl>, `2/2/20` <dbl>, `2/3/20` <dbl>,
## #   `2/4/20` <dbl>, `2/5/20` <dbl>, `2/6/20` <dbl>, `2/7/20` <dbl>,
## #   `2/8/20` <dbl>, `2/9/20` <dbl>, `2/10/20` <dbl>, `2/11/20` <dbl>,
## #   `2/12/20` <dbl>, `2/13/20` <dbl>, `2/14/20` <dbl>, `2/15/20` <dbl>,
## #   `2/16/20` <dbl>, `2/17/20` <dbl>, `2/18/20` <dbl>, `2/19/20` <dbl>,
## #   `2/20/20` <dbl>, `2/21/20` <dbl>, `2/22/20` <dbl>, `2/23/20` <dbl>,
## #   `2/24/20` <dbl>, `2/25/20` <dbl>, `2/26/20` <dbl>, `2/27/20` <dbl>

Data Cleaning

The data is imported as longitudinal/time-series data. I will use Dr.Zhous framework to convert the imported CSVs into long format:

confirmed = confirmed_raw %>%
  pivot_longer(-(`Province/State`:Long), 
               names_to = "date", 
               values_to = "confirmed") %>%
  mutate(date = mdy(date)) # convert string to date-time

confirmed

## # A tibble: 3,885 x 6
##    `Province/State` `Country/Region`   Lat  Long date       confirmed
##    <chr>            <chr>            <dbl> <dbl> <date>         <dbl>
##  1 Anhui            Mainland China    31.8  117. 2020-01-22         1
##  2 Anhui            Mainland China    31.8  117. 2020-01-23         9
##  3 Anhui            Mainland China    31.8  117. 2020-01-24        15
##  4 Anhui            Mainland China    31.8  117. 2020-01-25        39
##  5 Anhui            Mainland China    31.8  117. 2020-01-26        60
##  6 Anhui            Mainland China    31.8  117. 2020-01-27        70
##  7 Anhui            Mainland China    31.8  117. 2020-01-28       106
##  8 Anhui            Mainland China    31.8  117. 2020-01-29       152
##  9 Anhui            Mainland China    31.8  117. 2020-01-30       200
## 10 Anhui            Mainland China    31.8  117. 2020-01-31       237
## #  with 3,875 more rows

recovered <- recovered_raw %>%
  pivot_longer(-(`Province/State`:Long), 
               names_to = "date", 
               values_to = "recovered") %>%
  mutate(date = mdy(date))

recovered

## # A tibble: 3,885 x 6
##    `Province/State` `Country/Region`   Lat  Long date       recovered
##    <chr>            <chr>            <dbl> <dbl> <date>         <dbl>
##  1 Anhui            Mainland China    31.8  117. 2020-01-22         0
##  2 Anhui            Mainland China    31.8  117. 2020-01-23         0
##  3 Anhui            Mainland China    31.8  117. 2020-01-24         0
##  4 Anhui            Mainland China    31.8  117. 2020-01-25         0
##  5 Anhui            Mainland China    31.8  117. 2020-01-26         0
##  6 Anhui            Mainland China    31.8  117. 2020-01-27         0
##  7 Anhui            Mainland China    31.8  117. 2020-01-28         0
##  8 Anhui            Mainland China    31.8  117. 2020-01-29         2
##  9 Anhui            Mainland China    31.8  117. 2020-01-30         2
## 10 Anhui            Mainland China    31.8  117. 2020-01-31         3
## #  with 3,875 more rows

death <- death_raw %>%
  pivot_longer(-(`Province/State`:Long), 
               names_to = "date", 
               values_to = "death") %>%
  mutate(date = mdy(date))
death

## # A tibble: 3,885 x 6
##    `Province/State` `Country/Region`   Lat  Long date       death
##    <chr>            <chr>            <dbl> <dbl> <date>     <dbl>
##  1 Anhui            Mainland China    31.8  117. 2020-01-22     0
##  2 Anhui            Mainland China    31.8  117. 2020-01-23     0
##  3 Anhui            Mainland China    31.8  117. 2020-01-24     0
##  4 Anhui            Mainland China    31.8  117. 2020-01-25     0
##  5 Anhui            Mainland China    31.8  117. 2020-01-26     0
##  6 Anhui            Mainland China    31.8  117. 2020-01-27     0
##  7 Anhui            Mainland China    31.8  117. 2020-01-28     0
##  8 Anhui            Mainland China    31.8  117. 2020-01-29     0
##  9 Anhui            Mainland China    31.8  117. 2020-01-30     0
## 10 Anhui            Mainland China    31.8  117. 2020-01-31     0
## #  with 3,875 more rows

covid <- confirmed %>%
  left_join(recovered) %>%
  left_join(death)

## Joining, by = c("Province/State", "Country/Region", "Lat", "Long", "date")
## Joining, by = c("Province/State", "Country/Region", "Lat", "Long", "date")

covid %>% print(width = Inf)

## # A tibble: 3,885 x 8
##    `Province/State` `Country/Region`   Lat  Long date       confirmed recovered
##    <chr>            <chr>            <dbl> <dbl> <date>         <dbl>     <dbl>
##  1 Anhui            Mainland China    31.8  117. 2020-01-22         1         0
##  2 Anhui            Mainland China    31.8  117. 2020-01-23         9         0
##  3 Anhui            Mainland China    31.8  117. 2020-01-24        15         0
##  4 Anhui            Mainland China    31.8  117. 2020-01-25        39         0
##  5 Anhui            Mainland China    31.8  117. 2020-01-26        60         0
##  6 Anhui            Mainland China    31.8  117. 2020-01-27        70         0
##  7 Anhui            Mainland China    31.8  117. 2020-01-28       106         0
##  8 Anhui            Mainland China    31.8  117. 2020-01-29       152         2
##  9 Anhui            Mainland China    31.8  117. 2020-01-30       200         2
## 10 Anhui            Mainland China    31.8  117. 2020-01-31       237         3
##    death
##    <dbl>
##  1     0
##  2     0
##  3     0
##  4     0
##  5     0
##  6     0
##  7     0
##  8     0
##  9     0
## 10     0
## #  with 3,875 more rows
…
chn_map

## Simple feature collection with 925 features and 7 fields
## geometry type:  POLYGON
## dimension:      XY
## bbox:           xmin: 73.44696 ymin: 6.318641 xmax: 135.0858 ymax: 53.55793
## epsg (SRID):    NA
## proj4string:    NA
## # A tibble: 925 x 8
##      AREA PERIMETER BOU2_4M_ BOU2_4M_ID ADCODE93 ADCODE99 NAME 
##  *  <dbl>     <dbl>    <int>      <int>    <int>    <int> <chr>
##  1  54.4     68.5          2         23   230000   230000 
##  2 129.     130.           3         15   150000   150000 
##  3 176.      84.9          4         65   650000   650000 
##  4  21.3     41.2          5         22   220000   220000 
##  5  15.6     38.4          6         21   210000   210000 
##  6  41.5     76.8          7         62   620000   620000 
##  7  19.5     44.9          8         13   130000   130000 
##  8   1.73     8.50         9         11   110000   110000 
##  9   0        0.088       10        292   210000   210000 
## 10   0        0.047       11        292   210000   210000 
## #  with 915 more rows, and 1 more variable: geometry <POLYGON>
…
